{
  "name": "chatdamagebuttons-beyond20",
  "title": "Chat Damage Buttons - Beyond20 Edition",
  "description": "Adds 'Apply Damage' button to KaKaRoTo's Beyond20 chat cards.",
  "version": "1.1.2",
  "author": "Victor Ling <victorling@ionshard.com> (http://ionshard.com)",
  "url": "https://gitlab.com/Ionshard/foundry-vtt-bullseye",
  "minimumCoreVersion": "0.6.0",
  "compatibleCoreVersion": "0.6.0",
  "esmodules": [
    "src/index.js"
  ],
  "languages": [
    {
      "lang": "en",
      "name": "English",
      "path": "lang/en.json"
    }
  ],
  "styles": [],
  "packs": []
}
